Sweden election 2014
…
## [1] "Region"       "Partimm"      "ContentsCode" "Tid"

query = paste0(' { "query": [  {"code": "ContentsCode","selection": {"filter": "item", "values": [ "ME0104B7"] } }, {"code": "Tid",
 "selection": {"filter": "item",
 "values": ["', paste(SCB$variables$values[[4]],collapse='" "'),'"]}},   
 {"code": "Region","selection": {"filter": "item", "values": ["', paste(SCB$variables$values[[1]],collapse='" "'), 
 '"] } } ],"response": {"format": "csv"}  }')

results <- POST(url, body=query)
SCBdata <- content(results)

SCBdata

## # A tibble: 3,553 x 15
##    region  `parti mm`  `Andel röster (a… `Andel röster (… `Andel röster (…
##    <chr>   <chr>       <chr>             <chr>            <chr>           
##  1 0114 U… Moderaterna 15.5              17.1             23.5            
##  2 0114 U… Centerpart… 23.6              20.1             12.8            
##  3 0114 U… Folkpartiet 9.7               13.8             12.1            
##  4 0114 U… Kristdemok… 1.0               0.6              0.8             
##  5 0114 U… Miljöparti… ..                ..               ..              
##  6 0114 U… Socialdemo… 42.9              41.4             41.9            
##  7 0114 U… Vänsterpar… 6.5               6.5              7.8             
##  8 0114 U… Sverigedem… ..                ..               ..              
##  9 0114 U… övriga par… 0.6               0.5              1.0             
## 10 0114 U… ogiltiga v… ..                ..               ..              
## # ... with 3,543 more rows, and 10 more variables: `Andel röster (av
## #   giltiga röster) 1982` <chr>, `Andel röster (av giltiga röster)
## #   1985` <chr>, `Andel röster (av giltiga röster) 1988` <chr>, `Andel
## #   röster (av giltiga röster) 1991` <chr>, `Andel röster (av giltiga
## #   röster) 1994` <chr>, `Andel röster (av giltiga röster) 1998` <chr>,
## #   `Andel röster (av giltiga röster) 2002` <chr>, `Andel röster (av
## #   giltiga röster) 2006` <chr>, `Andel röster (av giltiga röster)
## #   2010` <chr>, `Andel röster (av giltiga röster) 2014` <chr>
…
